#-----------------------------------------------------------
# Vivado v2015.2 (64-bit)
# SW Build 1266856 on Fri Jun 26 16:35:25 MDT 2015
# IP Build 1264090 on Wed Jun 24 14:22:01 MDT 2015
# Start of session at: Mon Sep 21 20:56:26 2015
# Process ID: 6608
# Log file: C:/Users/callum/ztex/ztex-tests/ez_slave/fpga/vivado.log
# Journal file: C:/Users/callum/ztex/ztex-tests/ez_slave/fpga\vivado.jou
#-----------------------------------------------------------
start_gui
open_project C:/Users/callum/ztex/ztex-tests/ez_slave/fpga/fpga.xpr
Scanning sources...
Finished scanning sources
INFO: [IP_Flow 19-234] Refreshing IP repositories
INFO: [IP_Flow 19-1704] No user IP repositories specified
INFO: [IP_Flow 19-2313] Loaded Vivado IP repository 'G:/Programs/Xilinx/Vivado/2015.2/data/ip'.
add_files -norecurse C:/Users/callum/ztex/ztex-tests/ez_slave/fpga/ez_slave.v
add_files -fileset constrs_1 -norecurse C:/Users/callum/ztex/ztex-tests/ez_slave/fpga/ez_slave.xdc
launch_runs impl_1 -to_step write_bitstream
[Mon Sep 21 23:05:30 2015] Launched synth_1...
Run output will be captured here: C:/Users/callum/ztex/ztex-tests/ez_slave/fpga/fpga.runs/synth_1/runme.log
[Mon Sep 21 23:05:30 2015] Launched impl_1...
Run output will be captured here: C:/Users/callum/ztex/ztex-tests/ez_slave/fpga/fpga.runs/impl_1/runme.log
reset_run synth_1
launch_runs impl_1 -to_step write_bitstream
[Mon Sep 21 23:11:34 2015] Launched synth_1...
Run output will be captured here: C:/Users/callum/ztex/ztex-tests/ez_slave/fpga/fpga.runs/synth_1/runme.log
[Mon Sep 21 23:11:34 2015] Launched impl_1...
Run output will be captured here: C:/Users/callum/ztex/ztex-tests/ez_slave/fpga/fpga.runs/impl_1/runme.log
exit
INFO: [Common 17-206] Exiting Vivado at Mon Sep 21 23:11:47 2015...
